…
roster <- tibble(Number = player_number,
                 Name = player_name,
                 Position = player_position,
                 Age = player_age,
                 Height = player_height,
                 weight = player_weight,
                 Shoots = player_shoots,
                 Experience = player_exp,
                 Birth_Date = player_birth_date
                 )

roster

## # A tibble: 34 x 9
##    Number Name       Position   Age Height weight Shoots Experience Birth_Date  
##     <dbl> <chr>      <chr>    <dbl> <chr>   <dbl> <chr>       <dbl> <chr>       
##  1     45 Jonathan ~ G           32 6-0       185 -/L            12 August 7, 1~
##  2     59 Tyler Ber~ LW          25 6-1       199 L/-             4 February 24~
##  3      3 Alex Biega D           32 5-10      199 R/-             6 April 4, 19~
##  4     86 Mathias B~ F           26 6-0       183 L/-            NA July 29, 19~
##  5     21 Dennis Ch~ D           22 6-2       197 L/-             2 February 15~
##  6     65 Danny DeK~ D           30 6-3       190 L/-             8 March 7, 19~
##  7     44 Christian~ D           26 6-0       169 L/-             3 August 6, 1~
##  8     73 Adam Erne  LW          25 6-1       212 L/-             4 April 20, 1~
##  9     14 Robby Fab~ C           25 5-10      190 L/-             4 January 22,~
## 10     51 Valtteri ~ C           36 6-0       189 L/-            15 March 20, 1~
## # ... with 24 more rows
…
