Basic Plots in R | David Seth White
…
Bar Graphs

The first plot we will look at are bar graphs, we will be using the starwars data set for the bar graphs. Bar graphs are great for categorical data and getting counts of different levels of categorical data in a data set. The Starwars data set included in the dplyr package has some good examples of that

first we group and arragne the data to get a count of the different species in star wars

Then we will make a bar graph of the just the human and droids in starwars and what homeworld they are from

starwars%>%
  select(species)%>%
  group_by(species)%>%
  count()%>%
  arrange(desc(n))

## # A tibble: 38 x 2
## # Groups:   species [38]
##    species      n
##    <chr>    <int>
##  1 Human       35
##  2 Droid        6
##  3 <NA>         4
##  4 Gungan       3
##  5 Kaminoan     2
##  6 Mirialan     2
##  7 Twi'lek      2
##  8 Wookiee      2
##  9 Zabrak       2
## 10 Aleena       1
## # ... with 28 more rows
…
